<svg width="85" height="25" viewBox="0 0 85 25" fill="none" xmlns="http://www.w3.org/2000/svg">
<path fill-rule="evenodd" clip-rule="evenodd" d="M3.30664 3.479V5.1413L4.98829 6.83606V5.1742H5.82041V7.6501L6.67212 8.51107L7.50206 7.67159V5.1742H8.31547V6.86939L9.99669 5.17464V3.479H3.30664Z" fill="#4C72F4"/>
<path fill-rule="evenodd" clip-rule="evenodd" d="M0.0678927 0.0307021H0L0.00087042 6.71103L11.4504 18.2493V22.2494H1.85878V18.2419L5.32 14.6866L4.02613 14.7085L4.00828 13.3725L0.0113155 17.4695L0.0100098 24.1134H13.3026L13.3 17.4761L1.84964 5.93778V1.86405H11.4504V5.95752L9.8575 7.56368L9.85315 7.55929L7.9391 9.48782L7.93736 10.8277L9.23254 10.8247L9.25996 10.797L9.26257 10.7992L13.3 6.73121V0.227634L13.2896 0.00833342L0.285062 0L0.0678927 0.0307021Z" fill="#4C72F4"/>
<path fill-rule="evenodd" clip-rule="evenodd" d="M19.7621 14.6929H17.2422V13.1929H23.8487V14.6929H21.3292V22.4031H19.7621V14.6929Z" fill="#4C72F4"/>
<path fill-rule="evenodd" clip-rule="evenodd" d="M25.0624 22.403H26.6292V16.1665H25.0624V22.403ZM25.8459 13.1138C26.4204 13.1138 26.8773 13.5743 26.8773 14.1533C26.8773 14.7318 26.4204 15.1923 25.8459 15.1923C25.2714 15.1923 24.8145 14.7318 24.8145 14.1533C24.8145 13.5743 25.2714 13.1138 25.8459 13.1138Z" fill="#4C72F4"/>
<path fill-rule="evenodd" clip-rule="evenodd" d="M37.7932 18.3899V22.4027H36.226V18.7978C36.226 17.9425 35.9 17.482 35.1166 17.482C34.2941 17.482 33.9028 18.2846 33.9028 18.2846V22.4027H32.3357V18.7978C32.3357 17.9425 32.0092 17.482 31.2259 17.482C30.4038 17.482 30.0116 18.2846 30.0116 18.2846V22.4027H28.4453V16.1666H29.9076V17.0741C29.9076 17.0741 30.469 16.0083 31.7351 16.0083C33.2235 16.0083 33.6543 17.1009 33.6543 17.1009C33.6543 17.1009 34.1766 16.0083 35.6258 16.0083C36.8788 16.0083 37.7932 16.8899 37.7932 18.3899Z" fill="#4C72F4"/>
<path fill-rule="evenodd" clip-rule="evenodd" d="M43.6024 18.7058C43.5758 18.1668 43.0801 17.4426 42.0487 17.4426C41.0434 17.4426 40.5864 18.1532 40.5342 18.7058H43.6024ZM45.1693 19.2584C45.1693 19.3768 45.1693 19.6137 45.1558 19.8505H40.5343C40.6518 20.4031 41.2911 21.1137 42.2703 21.1137C43.3544 21.1137 43.9681 20.4821 43.9681 20.4821L44.7515 21.6663C44.7515 21.6663 43.7722 22.5611 42.2703 22.5611C40.3907 22.5611 38.9414 21.1137 38.9414 19.2847C38.9414 17.4557 40.2601 16.0088 42.0488 16.0088C43.7461 16.0088 45.1693 17.3378 45.1693 19.2584Z" fill="#4C72F4"/>
<path fill-rule="evenodd" clip-rule="evenodd" d="M46.8025 20.2851C46.8025 20.2851 47.6251 21.1795 48.6691 21.1795C49.3093 21.1795 49.8442 20.9952 49.8442 20.6137C49.8442 20.2058 49.557 20.1273 48.6173 19.9294C47.39 19.6667 46.3194 19.1404 46.3194 17.9557C46.3194 16.9825 47.2852 16.0088 48.9829 16.0088C50.3799 16.0088 51.3069 16.772 51.3069 16.772L50.5236 17.9299C50.5236 17.9299 49.8185 17.3899 48.9829 17.3899C48.3949 17.3899 47.8601 17.6009 47.8601 17.9825C47.8601 18.3641 48.2779 18.4562 49.3219 18.6799C50.5492 18.9426 51.424 19.3505 51.424 20.6404C51.424 21.7058 50.3012 22.5611 48.7213 22.5611C46.9065 22.5611 45.9277 21.4295 45.9277 21.4295L46.8025 20.2851Z" fill="#4C72F4"/>
<path fill-rule="evenodd" clip-rule="evenodd" d="M58.3947 18.364V22.4031H56.828V18.7583C56.828 17.8636 56.2796 17.482 55.6007 17.482C54.7912 17.482 54.3734 18.2982 54.3734 18.2982V22.4031H52.8066V12.4561H54.3734V16.9166C54.3734 16.9166 54.9222 16.0087 56.1229 16.0087C57.3241 16.0087 58.3947 16.864 58.3947 18.364Z" fill="#4C72F4"/>
<path fill-rule="evenodd" clip-rule="evenodd" d="M64.2059 18.7058C64.1794 18.1668 63.6837 17.4426 62.6522 17.4426C61.6469 17.4426 61.1899 18.1532 61.1377 18.7058H64.2059ZM65.7728 19.2584C65.7728 19.3768 65.7728 19.6137 65.7593 19.8505H61.1378C61.2553 20.4031 61.8951 21.1137 62.8738 21.1137C63.958 21.1137 64.5716 20.4821 64.5716 20.4821L65.355 21.6663C65.355 21.6663 64.3758 22.5611 62.8738 22.5611C60.9942 22.5611 59.5449 21.1137 59.5449 19.2847C59.5449 17.4557 60.8636 16.0088 62.6523 16.0088C64.3496 16.0088 65.7728 17.3378 65.7728 19.2584Z" fill="#4C72F4"/>
<path fill-rule="evenodd" clip-rule="evenodd" d="M71.1649 18.7058C71.1383 18.1668 70.6426 17.4426 69.6112 17.4426C68.6059 17.4426 68.1489 18.1532 68.0967 18.7058H71.1649ZM72.7318 19.2584C72.7318 19.3768 72.7318 19.6137 72.7183 19.8505H68.0968C68.2143 20.4031 68.8536 21.1137 69.8328 21.1137C70.9169 21.1137 71.5306 20.4821 71.5306 20.4821L72.314 21.6663C72.314 21.6663 71.3347 22.5611 69.8328 22.5611C67.9532 22.5611 66.5039 21.1137 66.5039 19.2847C66.5039 17.4557 67.8226 16.0088 69.6113 16.0088C71.3086 16.0088 72.7318 17.3378 72.7318 19.2584Z" fill="#4C72F4"/>
<path fill-rule="evenodd" clip-rule="evenodd" d="M73.3828 16.1668H74.597V14.3115H76.1638V16.1668H78.0309V17.5874H76.1638V20.1006C76.1638 20.8638 76.5551 21.0875 76.9729 21.0875C77.3258 21.0875 77.6257 20.8638 77.6257 20.8638L78.2002 22.1533C78.2002 22.1533 77.6131 22.5612 76.7117 22.5612C75.511 22.5612 74.597 21.6796 74.597 20.3506V17.5874H73.3828V16.1668Z" fill="#4C72F4"/>
<path fill-rule="evenodd" clip-rule="evenodd" d="M79.7947 20.2851C79.7947 20.2851 80.6172 21.1795 81.6617 21.1795C82.3015 21.1795 82.8364 20.9952 82.8364 20.6137C82.8364 20.2058 82.5491 20.1273 81.6095 19.9294C80.3822 19.6667 79.3116 19.1404 79.3116 17.9557C79.3116 16.9825 80.2773 16.0088 81.9751 16.0088C83.3721 16.0088 84.2991 16.772 84.2991 16.772L83.5157 17.9299C83.5157 17.9299 82.8107 17.3899 81.9751 17.3899C81.3871 17.3899 80.8523 17.6009 80.8523 17.9825C80.8523 18.3641 81.2701 18.4562 82.3141 18.6799C83.5414 18.9426 84.4162 19.3505 84.4162 20.6404C84.4162 21.7058 83.2933 22.5611 81.7135 22.5611C79.8987 22.5611 78.9199 21.4295 78.9199 21.4295L79.7947 20.2851Z" fill="#4C72F4"/>
<path d="M23.91 8.67937L23.0648 7.83415C23.6661 7.25906 24.032 6.4487 24.032 5.53377C24.032 3.79106 22.6814 2.37946 20.9213 2.37946C19.1612 2.37946 17.8105 3.79106 17.8105 5.53377C17.8105 7.27649 19.1612 8.68808 20.9213 8.68808C21.5312 8.68808 22.0976 8.52253 22.5769 8.21755L23.4744 9.11505L23.91 8.67937ZM21.6619 6.43998L21.2263 6.87566L22.1238 7.77316C21.7752 7.98228 21.3657 8.09556 20.9213 8.09556C19.5271 8.09556 18.4989 6.97151 18.4989 5.53377C18.4989 4.09603 19.5271 2.97198 20.9213 2.97198C22.3155 2.97198 23.3437 4.09603 23.3437 5.53377C23.3437 6.27442 23.0648 6.93666 22.6117 7.39848L21.6619 6.43998Z" fill="#4C72F4"/>
<path d="M29.0402 8.58352V4.3313H28.4476V7.1545C28.1688 7.69474 27.6547 8.14784 27.0186 8.14784C26.0688 8.14784 25.9207 7.33748 25.9207 6.53583V4.3313H25.3282V6.63168C25.3282 7.91258 25.7203 8.68808 26.9315 8.68808C27.585 8.68808 28.1078 8.40054 28.4476 7.83415V8.58352H29.0402Z" fill="#4C72F4"/>
<path d="M31.215 8.58352V4.3313H30.6224V8.58352H31.215ZM31.215 3.38152V2.56244H30.6224V3.38152H31.215Z" fill="#4C72F4"/>
<path d="M35.9551 8.58352H36.5477V2.04834H35.9551V4.74955C35.5892 4.40972 35.0751 4.22673 34.5958 4.22673C33.3498 4.22673 32.4087 5.26365 32.4087 6.47484C32.4087 7.68602 33.3411 8.68808 34.5871 8.68808C35.1099 8.68808 35.6327 8.46153 35.9551 8.03457V8.58352ZM35.9551 7.34619C35.7112 7.84287 35.1273 8.14784 34.6045 8.14784C33.6722 8.14784 33.0187 7.35491 33.0187 6.43998C33.0187 5.53377 33.6809 4.76698 34.6045 4.76698C35.0925 4.76698 35.6414 5.02838 35.9551 5.43792V7.34619Z" fill="#4C72F4"/>
<path d="M38.7287 2.04834H38.1362V8.58352H38.7287V2.04834Z" fill="#4C72F4"/>
<path d="M42.066 4.22673C40.8025 4.22673 39.9225 5.22008 39.9225 6.45741C39.9225 7.69474 40.8025 8.68808 42.066 8.68808C43.3295 8.68808 44.2095 7.69474 44.2095 6.45741C44.2095 5.22008 43.3295 4.22673 42.066 4.22673ZM43.5996 6.45741C43.5996 7.34619 43.0158 8.14784 42.066 8.14784C41.1162 8.14784 40.5324 7.34619 40.5324 6.45741C40.5324 5.56862 41.1162 4.76698 42.066 4.76698C43.0158 4.76698 43.5996 5.56862 43.5996 6.45741Z" fill="#4C72F4"/>
</svg>
